<svg xmlns="http://www.w3.org/2000/svg" width="99.404" height="111.701" viewBox="0 0 99.404 111.701">
  <g id="Group_174999" data-name="Group 174999" transform="translate(-955.5 -3872)">
    <g id="location_bulk" data-name="location/bulk" transform="translate(955.5 3872)">
      <g id="vuesax_bulk_location" data-name="vuesax/bulk/location">
        <g id="location">
          <path id="Vector" d="M72.482,27.75C68.133,8.615,51.441,0,36.779,0h-.041C22.117,0,5.384,8.574,1.035,27.709-3.811,49.081,9.278,67.18,21.123,78.57a22.457,22.457,0,0,0,31.271,0C64.24,67.18,77.328,49.122,72.482,27.75Z" transform="translate(12.923 7.248)" fill="#f6381e" opacity="0.4"/>
          <path id="Vector-2" data-name="Vector" d="M26.093,13.047A13.047,13.047,0,1,1,13.047,0,13.047,13.047,0,0,1,26.093,13.047Z" transform="translate(36.655 29.655)" fill="#f6381e"/>
          <path id="Vector-3" data-name="Vector" d="M0,0H99.4V99.4H0Z" fill="none" opacity="0"/>
        </g>
      </g>
    </g>
    <line id="Line_8" data-name="Line 8" x1="31" transform="translate(990 3981.201)" fill="none" stroke="#f6381e" stroke-linecap="round" stroke-width="5" opacity="0.37"/>
  </g>
</svg>
