<svg id="refresh-2_linear" data-name="refresh-2/linear" xmlns="http://www.w3.org/2000/svg" width="17.534" height="17.534" viewBox="0 0 17.534 17.534">
  <g id="vuesax_linear_refresh-2" data-name="vuesax/linear/refresh-2">
    <g id="refresh-2">
      <path id="Vector" d="M1.11,14.44v3.653" transform="translate(1.162 -2.429)" fill="none" stroke="#1c2c60" stroke-linecap="round" stroke-linejoin="round" stroke-width="1.2"/>
      <path id="Vector-2" data-name="Vector" d="M14.612,7.306a7.309,7.309,0,0,1-7.306,7.306C3.273,14.612.811,10.55.811,10.55h3.3M0,7.306A7.29,7.29,0,0,1,7.306,0a8.987,8.987,0,0,1,7.306,4.062m0,0V.409m0,3.653H11.368" transform="translate(1.461 1.461)" fill="none" stroke="#1c2c60" stroke-linecap="round" stroke-linejoin="round" stroke-width="1.2"/>
      <path id="Vector-3" data-name="Vector" d="M0,0H17.534V17.534H0Z" transform="translate(17.534 17.534) rotate(180)" fill="none" opacity="0"/>
    </g>
  </g>
</svg>
