<svg id="vuesax_linear_call-calling" data-name="vuesax/linear/call-calling" xmlns="http://www.w3.org/2000/svg" width="17.763" height="17.762" viewBox="0 0 17.763 17.762">
  <g id="call-calling">
    <g id="call-calling-2" data-name="call-calling" transform="translate(1.48 1.48)">
      <path id="Vector" d="M0,12.086a1.884,1.884,0,0,0,.185.807,3.054,3.054,0,0,0,.5.755,3.337,3.337,0,0,0,1.214.873,3.717,3.717,0,0,0,1.443.281,6.168,6.168,0,0,0,2.413-.54A13,13,0,0,0,8.3,12.8a21.278,21.278,0,0,0,2.428-2.072A21.029,21.029,0,0,0,12.8,8.3,13.194,13.194,0,0,0,14.247,5.78a6.233,6.233,0,0,0,.533-2.42,3.829,3.829,0,0,0-.266-1.428A3.406,3.406,0,0,0,13.662.7,2.169,2.169,0,0,0,12.123,0a1.391,1.391,0,0,0-.6.133,1.206,1.206,0,0,0-.5.414L9.311,2.968a2.533,2.533,0,0,0-.3.518,1.17,1.17,0,0,0-.1.451,1,1,0,0,0,.155.525,2.517,2.517,0,0,0,.414.525l.562.585a.4.4,0,0,1,.118.3.672.672,0,0,1-.022.17c-.022.059-.044.1-.059.148a6.141,6.141,0,0,1-.688.947c-.333.385-.688.777-1.073,1.169s-.785.755-1.177,1.088a5.68,5.68,0,0,1-.955.681c-.037.015-.081.037-.133.059a.511.511,0,0,1-.185.03.407.407,0,0,1-.3-.126L5,9.481a2.271,2.271,0,0,0-.533-.414.986.986,0,0,0-.525-.155,1.181,1.181,0,0,0-.451.1,2.863,2.863,0,0,0-.518.289L.525,11.035a1.123,1.123,0,0,0-.407.474A1.518,1.518,0,0,0,0,12.086Z" transform="translate(0.022 0)" fill="none" stroke="#1c2c60" stroke-width="1.5"/>
      <path id="Vector-2" data-name="Vector" d="M0,2.59A2.935,2.935,0,0,1,.866.91,2.528,2.528,0,0,1,2.59,0" transform="translate(2.59 2.59)" fill="none" stroke="#1c2c60" stroke-linecap="round" stroke-linejoin="round" stroke-width="1.5"/>
      <path id="Vector-3" data-name="Vector" d="M0,5.181A5.177,5.177,0,0,1,5.181,0" transform="translate(0 0)" fill="none" stroke="#1c2c60" stroke-linecap="round" stroke-linejoin="round" stroke-width="1.5"/>
    </g>
    <path id="Vector-4" data-name="Vector" d="M17.763,0H0V17.762H17.763Z" fill="none" opacity="0"/>
  </g>
</svg>
